This is BibTeX, Version 0.99d (TeX Live 2019)
Capacity: max_strings=100000, hash_size=100000, hash_prime=85009
The top-level auxiliary file: BZ_HJones__notes.aux
The style file: plain.bst
Database file #1: BZ_HJones__notes.bib
You've used 2 entries,
            2118 wiz_defined-function locations,
            509 strings with 4299 characters,
and the built_in function-call counts, 543 in all, are:
= -- 45
> -- 31
< -- 1
+ -- 12
- -- 10
* -- 31
:= -- 98
add.period$ -- 5
call.type$ -- 2
change.case$ -- 9
chr.to.int$ -- 0
cite$ -- 2
duplicate$ -- 19
empty$ -- 45
format.name$ -- 10
if$ -- 111
int.to.chr$ -- 0
int.to.str$ -- 2
missing$ -- 2
newline$ -- 12
num.names$ -- 4
pop$ -- 18
preamble$ -- 1
purify$ -- 8
quote$ -- 0
skip$ -- 17
stack$ -- 0
substring$ -- 10
swap$ -- 3
text.length$ -- 1
text.prefix$ -- 0
top$ -- 0
type$ -- 6
warning$ -- 0
while$ -- 4
width$ -- 3
write$ -- 21
