PWD /Users/andrejthealien/literature/physics/dualTheory/MasterThesis_ErikVanLoon
INPUT /usr/local/texlive/2019/texmf.cnf
INPUT /usr/local/texlive/2019/texmf-dist/web2c/texmf.cnf
INPUT /usr/local/texlive/2019/texmf-var/web2c/pdftex/pdflatex.fmt
INPUT master_Erik__notes.tex
OUTPUT master_Erik__notes.log
INPUT /usr/local/texlive/2019/texmf-dist/tex/latex/base/article.cls
INPUT /usr/local/texlive/2019/texmf-dist/tex/latex/base/article.cls
INPUT /usr/local/texlive/2019/texmf-dist/tex/latex/base/size12.clo
INPUT /usr/local/texlive/2019/texmf-dist/tex/latex/base/size12.clo
INPUT /usr/local/texlive/2019/texmf-dist/fonts/map/fontname/texfonts.map
INPUT /usr/local/texlive/2019/texmf-dist/fonts/tfm/public/cm/cmr12.tfm
INPUT /usr/local/texlive/2019/texmf-dist/tex/latex/setspace/setspace.sty
INPUT /usr/local/texlive/2019/texmf-dist/tex/latex/setspace/setspace.sty
INPUT /usr/local/texlive/2019/texmf-dist/tex/latex/lm/lmodern.sty
INPUT /usr/local/texlive/2019/texmf-dist/tex/latex/lm/lmodern.sty
INPUT /usr/local/texlive/2019/texmf-dist/tex/latex/physics/physics.sty
INPUT /usr/local/texlive/2019/texmf-dist/tex/latex/physics/physics.sty
INPUT /usr/local/texlive/2019/texmf-dist/tex/latex/l3packages/xparse/xparse.sty
INPUT /usr/local/texlive/2019/texmf-dist/tex/latex/l3packages/xparse/xparse.sty
INPUT /usr/local/texlive/2019/texmf-dist/tex/latex/l3kernel/expl3.sty
INPUT /usr/local/texlive/2019/texmf-dist/tex/latex/l3kernel/expl3.sty
INPUT /usr/local/texlive/2019/texmf-dist/tex/latex/l3kernel/expl3-code.tex
INPUT /usr/local/texlive/2019/texmf-dist/tex/latex/l3kernel/expl3-code.tex
INPUT /usr/local/texlive/2019/texmf-dist/fonts/tfm/public/cm/cmr10.tfm
INPUT /usr/local/texlive/2019/texmf-dist/fonts/tfm/public/cm/cmr10.tfm
INPUT /usr/local/texlive/2019/texmf-dist/fonts/tfm/public/cm/cmr10.tfm
INPUT /usr/local/texlive/2019/texmf-dist/fonts/tfm/public/cm/cmr10.tfm
INPUT /usr/local/texlive/2019/texmf-dist/fonts/tfm/public/cm/cmr10.tfm
INPUT /usr/local/texlive/2019/texmf-dist/fonts/tfm/public/cm/cmr10.tfm
INPUT /usr/local/texlive/2019/texmf-dist/fonts/tfm/public/cm/cmr10.tfm
INPUT /usr/local/texlive/2019/texmf-dist/fonts/tfm/public/cm/cmr10.tfm
INPUT /usr/local/texlive/2019/texmf-dist/fonts/tfm/public/cm/cmr10.tfm
INPUT /usr/local/texlive/2019/texmf-dist/fonts/tfm/public/cm/cmr10.tfm
INPUT /usr/local/texlive/2019/texmf-dist/tex/generic/unicode-data/UnicodeData.txt
INPUT /usr/local/texlive/2019/texmf-dist/tex/generic/unicode-data/UnicodeData.txt
INPUT /dev/null
INPUT /usr/local/texlive/2019/texmf-dist/tex/latex/l3kernel/l3pdfmode.def
INPUT /usr/local/texlive/2019/texmf-dist/tex/latex/l3kernel/l3pdfmode.def
INPUT /usr/local/texlive/2019/texmf-dist/tex/latex/amsmath/amsmath.sty
INPUT /usr/local/texlive/2019/texmf-dist/tex/latex/amsmath/amsmath.sty
INPUT /usr/local/texlive/2019/texmf-dist/tex/latex/amsmath/amstext.sty
INPUT /usr/local/texlive/2019/texmf-dist/tex/latex/amsmath/amstext.sty
INPUT /usr/local/texlive/2019/texmf-dist/tex/latex/amsmath/amsgen.sty
INPUT /usr/local/texlive/2019/texmf-dist/tex/latex/amsmath/amsgen.sty
INPUT /usr/local/texlive/2019/texmf-dist/tex/latex/amsmath/amsbsy.sty
INPUT /usr/local/texlive/2019/texmf-dist/tex/latex/amsmath/amsbsy.sty
INPUT /usr/local/texlive/2019/texmf-dist/tex/latex/amsmath/amsopn.sty
INPUT /usr/local/texlive/2019/texmf-dist/tex/latex/amsmath/amsopn.sty
INPUT /usr/local/texlive/2019/texmf-dist/tex/latex/graphics/graphicx.sty
INPUT /usr/local/texlive/2019/texmf-dist/tex/latex/graphics/graphicx.sty
INPUT /usr/local/texlive/2019/texmf-dist/tex/latex/graphics/keyval.sty
INPUT /usr/local/texlive/2019/texmf-dist/tex/latex/graphics/keyval.sty
INPUT /usr/local/texlive/2019/texmf-dist/tex/latex/graphics/graphics.sty
INPUT /usr/local/texlive/2019/texmf-dist/tex/latex/graphics/graphics.sty
INPUT /usr/local/texlive/2019/texmf-dist/tex/latex/graphics/trig.sty
INPUT /usr/local/texlive/2019/texmf-dist/tex/latex/graphics/trig.sty
INPUT /usr/local/texlive/2019/texmf-dist/tex/latex/graphics-cfg/graphics.cfg
INPUT /usr/local/texlive/2019/texmf-dist/tex/latex/graphics-cfg/graphics.cfg
INPUT /usr/local/texlive/2019/texmf-dist/tex/latex/graphics-def/pdftex.def
INPUT /usr/local/texlive/2019/texmf-dist/tex/latex/graphics-def/pdftex.def
INPUT /usr/local/texlive/2019/texmf-dist/tex/latex/amsfonts/amsfonts.sty
INPUT /usr/local/texlive/2019/texmf-dist/tex/latex/amsfonts/amsfonts.sty
INPUT /usr/local/texlive/2019/texmf-dist/tex/latex/amsfonts/amssymb.sty
INPUT /usr/local/texlive/2019/texmf-dist/tex/latex/amsfonts/amssymb.sty
INPUT /usr/local/texlive/2019/texmf-dist/tex/latex/amscls/amsthm.sty
INPUT /usr/local/texlive/2019/texmf-dist/tex/latex/amscls/amsthm.sty
INPUT /usr/local/texlive/2019/texmf-dist/tex/latex/txfonts/txfonts.sty
INPUT /usr/local/texlive/2019/texmf-dist/tex/latex/txfonts/txfonts.sty
INPUT /usr/local/texlive/2019/texmf-dist/tex/latex/lipsum/lipsum.sty
INPUT /usr/local/texlive/2019/texmf-dist/tex/latex/lipsum/lipsum.sty
INPUT /usr/local/texlive/2019/texmf-dist/tex/latex/lipsum/lipsum.ltd.tex
INPUT /usr/local/texlive/2019/texmf-dist/tex/latex/lipsum/lipsum.ltd.tex
INPUT /usr/local/texlive/2019/texmf-dist/tex/latex/graphics/color.sty
INPUT /usr/local/texlive/2019/texmf-dist/tex/latex/graphics/color.sty
INPUT /usr/local/texlive/2019/texmf-dist/tex/latex/graphics-cfg/color.cfg
INPUT /usr/local/texlive/2019/texmf-dist/tex/latex/graphics-cfg/color.cfg
INPUT /usr/local/texlive/2019/texmf-dist/tex/latex/wasysym/wasysym.sty
INPUT /usr/local/texlive/2019/texmf-dist/tex/latex/wasysym/wasysym.sty
INPUT /usr/local/texlive/2019/texmf-dist/tex/latex/hyperref/hyperref.sty
INPUT /usr/local/texlive/2019/texmf-dist/tex/latex/hyperref/hyperref.sty
INPUT /usr/local/texlive/2019/texmf-dist/tex/generic/oberdiek/hobsub-hyperref.sty
INPUT /usr/local/texlive/2019/texmf-dist/tex/generic/oberdiek/hobsub-hyperref.sty
INPUT /usr/local/texlive/2019/texmf-dist/tex/generic/oberdiek/hobsub-hyperref.sty
INPUT /usr/local/texlive/2019/texmf-dist/tex/generic/oberdiek/hobsub-generic.sty
INPUT /usr/local/texlive/2019/texmf-dist/tex/generic/oberdiek/hobsub-generic.sty
INPUT /usr/local/texlive/2019/texmf-dist/tex/generic/ifxetex/ifxetex.sty
INPUT /usr/local/texlive/2019/texmf-dist/tex/generic/ifxetex/ifxetex.sty
INPUT /usr/local/texlive/2019/texmf-dist/tex/latex/oberdiek/auxhook.sty
INPUT /usr/local/texlive/2019/texmf-dist/tex/latex/oberdiek/auxhook.sty
INPUT /usr/local/texlive/2019/texmf-dist/tex/latex/oberdiek/kvoptions.sty
INPUT /usr/local/texlive/2019/texmf-dist/tex/latex/oberdiek/kvoptions.sty
INPUT /usr/local/texlive/2019/texmf-dist/tex/latex/hyperref/pd1enc.def
INPUT /usr/local/texlive/2019/texmf-dist/tex/latex/hyperref/pd1enc.def
INPUT /usr/local/texlive/2019/texmf-dist/tex/latex/latexconfig/hyperref.cfg
INPUT /usr/local/texlive/2019/texmf-dist/tex/latex/latexconfig/hyperref.cfg
INPUT /usr/local/texlive/2019/texmf-dist/tex/latex/url/url.sty
INPUT /usr/local/texlive/2019/texmf-dist/tex/latex/url/url.sty
INPUT /usr/local/texlive/2019/texmf-dist/tex/latex/hyperref/hpdftex.def
INPUT /usr/local/texlive/2019/texmf-dist/tex/latex/hyperref/hpdftex.def
INPUT /usr/local/texlive/2019/texmf-dist/tex/latex/oberdiek/rerunfilecheck.sty
INPUT /usr/local/texlive/2019/texmf-dist/tex/latex/oberdiek/rerunfilecheck.sty
INPUT /usr/local/texlive/2019/texmf-dist/tex/latex/bbold/bbold.sty
INPUT /usr/local/texlive/2019/texmf-dist/tex/latex/bbold/bbold.sty
INPUT /usr/local/texlive/2019/texmf-dist/tex/latex/appendix/appendix.sty
INPUT /usr/local/texlive/2019/texmf-dist/tex/latex/appendix/appendix.sty
INPUT /usr/local/texlive/2019/texmf-dist/tex/latex/etoolbox/etoolbox.sty
INPUT /usr/local/texlive/2019/texmf-dist/tex/latex/etoolbox/etoolbox.sty
INPUT /usr/local/texlive/2019/texmf-dist/tex/latex/enumitem/enumitem.sty
INPUT /usr/local/texlive/2019/texmf-dist/tex/latex/enumitem/enumitem.sty
INPUT /usr/local/texlive/2019/texmf-dist/tex/latex/jknapltx/mathrsfs.sty
INPUT /usr/local/texlive/2019/texmf-dist/tex/latex/jknapltx/mathrsfs.sty
INPUT /usr/local/texlive/2019/texmf-dist/tex/latex/mathtools/mathtools.sty
INPUT /usr/local/texlive/2019/texmf-dist/tex/latex/mathtools/mathtools.sty
INPUT /usr/local/texlive/2019/texmf-dist/tex/latex/tools/calc.sty
INPUT /usr/local/texlive/2019/texmf-dist/tex/latex/tools/calc.sty
INPUT /usr/local/texlive/2019/texmf-dist/tex/latex/mathtools/mhsetup.sty
INPUT /usr/local/texlive/2019/texmf-dist/tex/latex/mathtools/mhsetup.sty
INPUT /usr/local/texlive/2019/texmf-dist/tex/latex/pgf/frontendlayer/tikz.sty
INPUT /usr/local/texlive/2019/texmf-dist/tex/latex/pgf/frontendlayer/tikz.sty
INPUT /usr/local/texlive/2019/texmf-dist/tex/latex/pgf/basiclayer/pgf.sty
INPUT /usr/local/texlive/2019/texmf-dist/tex/latex/pgf/basiclayer/pgf.sty
INPUT /usr/local/texlive/2019/texmf-dist/tex/latex/pgf/utilities/pgfrcs.sty
INPUT /usr/local/texlive/2019/texmf-dist/tex/latex/pgf/utilities/pgfrcs.sty
INPUT /usr/local/texlive/2019/texmf-dist/tex/generic/pgf/utilities/pgfutil-common.tex
INPUT /usr/local/texlive/2019/texmf-dist/tex/generic/pgf/utilities/pgfutil-common-lists.tex
INPUT /usr/local/texlive/2019/texmf-dist/tex/generic/pgf/utilities/pgfutil-latex.def
INPUT /usr/local/texlive/2019/texmf-dist/tex/latex/ms/everyshi.sty
INPUT /usr/local/texlive/2019/texmf-dist/tex/latex/ms/everyshi.sty
INPUT /usr/local/texlive/2019/texmf-dist/tex/generic/pgf/utilities/pgfrcs.code.tex
INPUT /usr/local/texlive/2019/texmf-dist/tex/generic/pgf/utilities/pgfrcs.code.tex
INPUT /usr/local/texlive/2019/texmf-dist/tex/generic/pgf/pgf.revision.tex
INPUT /usr/local/texlive/2019/texmf-dist/tex/generic/pgf/pgf.revision.tex
INPUT /usr/local/texlive/2019/texmf-dist/tex/latex/pgf/basiclayer/pgfcore.sty
INPUT /usr/local/texlive/2019/texmf-dist/tex/latex/pgf/basiclayer/pgfcore.sty
INPUT /usr/local/texlive/2019/texmf-dist/tex/latex/pgf/systemlayer/pgfsys.sty
INPUT /usr/local/texlive/2019/texmf-dist/tex/latex/pgf/systemlayer/pgfsys.sty
INPUT /usr/local/texlive/2019/texmf-dist/tex/generic/pgf/systemlayer/pgfsys.code.tex
INPUT /usr/local/texlive/2019/texmf-dist/tex/generic/pgf/systemlayer/pgfsys.code.tex
INPUT /usr/local/texlive/2019/texmf-dist/tex/generic/pgf/utilities/pgfkeys.code.tex
INPUT /usr/local/texlive/2019/texmf-dist/tex/generic/pgf/utilities/pgfkeysfiltered.code.tex
INPUT /usr/local/texlive/2019/texmf-dist/tex/generic/pgf/systemlayer/pgf.cfg
INPUT /usr/local/texlive/2019/texmf-dist/tex/generic/pgf/systemlayer/pgfsys-pdftex.def
INPUT /usr/local/texlive/2019/texmf-dist/tex/generic/pgf/systemlayer/pgfsys-pdftex.def
INPUT /usr/local/texlive/2019/texmf-dist/tex/generic/pgf/systemlayer/pgfsys-common-pdf.def
INPUT /usr/local/texlive/2019/texmf-dist/tex/generic/pgf/systemlayer/pgfsyssoftpath.code.tex
INPUT /usr/local/texlive/2019/texmf-dist/tex/generic/pgf/systemlayer/pgfsyssoftpath.code.tex
INPUT /usr/local/texlive/2019/texmf-dist/tex/generic/pgf/systemlayer/pgfsysprotocol.code.tex
INPUT /usr/local/texlive/2019/texmf-dist/tex/generic/pgf/systemlayer/pgfsysprotocol.code.tex
INPUT /usr/local/texlive/2019/texmf-dist/tex/latex/xcolor/xcolor.sty
INPUT /usr/local/texlive/2019/texmf-dist/tex/latex/xcolor/xcolor.sty
INPUT /usr/local/texlive/2019/texmf-dist/tex/latex/graphics-cfg/color.cfg
INPUT /usr/local/texlive/2019/texmf-dist/tex/latex/graphics-cfg/color.cfg
INPUT /usr/local/texlive/2019/texmf-dist/tex/generic/pgf/basiclayer/pgfcore.code.tex
INPUT /usr/local/texlive/2019/texmf-dist/tex/generic/pgf/basiclayer/pgfcore.code.tex
INPUT /usr/local/texlive/2019/texmf-dist/tex/generic/pgf/math/pgfmath.code.tex
INPUT /usr/local/texlive/2019/texmf-dist/tex/generic/pgf/math/pgfmathcalc.code.tex
INPUT /usr/local/texlive/2019/texmf-dist/tex/generic/pgf/math/pgfmathutil.code.tex
INPUT /usr/local/texlive/2019/texmf-dist/tex/generic/pgf/math/pgfmathparser.code.tex
INPUT /usr/local/texlive/2019/texmf-dist/tex/generic/pgf/math/pgfmathfunctions.code.tex
INPUT /usr/local/texlive/2019/texmf-dist/tex/generic/pgf/math/pgfmathfunctions.basic.code.tex
INPUT /usr/local/texlive/2019/texmf-dist/tex/generic/pgf/math/pgfmathfunctions.trigonometric.code.tex
INPUT /usr/local/texlive/2019/texmf-dist/tex/generic/pgf/math/pgfmathfunctions.random.code.tex
INPUT /usr/local/texlive/2019/texmf-dist/tex/generic/pgf/math/pgfmathfunctions.comparison.code.tex
INPUT /usr/local/texlive/2019/texmf-dist/tex/generic/pgf/math/pgfmathfunctions.base.code.tex
INPUT /usr/local/texlive/2019/texmf-dist/tex/generic/pgf/math/pgfmathfunctions.round.code.tex
INPUT /usr/local/texlive/2019/texmf-dist/tex/generic/pgf/math/pgfmathfunctions.misc.code.tex
INPUT /usr/local/texlive/2019/texmf-dist/tex/generic/pgf/math/pgfmathfunctions.integerarithmetics.code.tex
INPUT /usr/local/texlive/2019/texmf-dist/tex/generic/pgf/math/pgfmathfloat.code.tex
INPUT /usr/local/texlive/2019/texmf-dist/tex/generic/pgf/basiclayer/pgfcorepoints.code.tex
INPUT /usr/local/texlive/2019/texmf-dist/tex/generic/pgf/basiclayer/pgfcorepathconstruct.code.tex
INPUT /usr/local/texlive/2019/texmf-dist/tex/generic/pgf/basiclayer/pgfcorepathusage.code.tex
INPUT /usr/local/texlive/2019/texmf-dist/tex/generic/pgf/basiclayer/pgfcorescopes.code.tex
INPUT /usr/local/texlive/2019/texmf-dist/tex/generic/pgf/basiclayer/pgfcoregraphicstate.code.tex
INPUT /usr/local/texlive/2019/texmf-dist/tex/generic/pgf/basiclayer/pgfcoretransformations.code.tex
INPUT /usr/local/texlive/2019/texmf-dist/tex/generic/pgf/basiclayer/pgfcorequick.code.tex
INPUT /usr/local/texlive/2019/texmf-dist/tex/generic/pgf/basiclayer/pgfcoreobjects.code.tex
INPUT /usr/local/texlive/2019/texmf-dist/tex/generic/pgf/basiclayer/pgfcorepathprocessing.code.tex
INPUT /usr/local/texlive/2019/texmf-dist/tex/generic/pgf/basiclayer/pgfcorearrows.code.tex
INPUT /usr/local/texlive/2019/texmf-dist/tex/generic/pgf/basiclayer/pgfcoreshade.code.tex
INPUT /usr/local/texlive/2019/texmf-dist/tex/generic/pgf/basiclayer/pgfcoreimage.code.tex
INPUT /usr/local/texlive/2019/texmf-dist/tex/generic/pgf/basiclayer/pgfcoreexternal.code.tex
INPUT /usr/local/texlive/2019/texmf-dist/tex/generic/pgf/basiclayer/pgfcorelayers.code.tex
INPUT /usr/local/texlive/2019/texmf-dist/tex/generic/pgf/basiclayer/pgfcoretransparency.code.tex
INPUT /usr/local/texlive/2019/texmf-dist/tex/generic/pgf/basiclayer/pgfcorepatterns.code.tex
INPUT /usr/local/texlive/2019/texmf-dist/tex/generic/pgf/basiclayer/pgfcorerdf.code.tex
INPUT /usr/local/texlive/2019/texmf-dist/tex/generic/pgf/modules/pgfmoduleshapes.code.tex
INPUT /usr/local/texlive/2019/texmf-dist/tex/generic/pgf/modules/pgfmoduleplot.code.tex
INPUT /usr/local/texlive/2019/texmf-dist/tex/latex/pgf/compatibility/pgfcomp-version-0-65.sty
INPUT /usr/local/texlive/2019/texmf-dist/tex/latex/pgf/compatibility/pgfcomp-version-0-65.sty
INPUT /usr/local/texlive/2019/texmf-dist/tex/latex/pgf/compatibility/pgfcomp-version-1-18.sty
INPUT /usr/local/texlive/2019/texmf-dist/tex/latex/pgf/compatibility/pgfcomp-version-1-18.sty
INPUT /usr/local/texlive/2019/texmf-dist/tex/latex/pgf/utilities/pgffor.sty
INPUT /usr/local/texlive/2019/texmf-dist/tex/latex/pgf/utilities/pgffor.sty
INPUT /usr/local/texlive/2019/texmf-dist/tex/latex/pgf/utilities/pgfkeys.sty
INPUT /usr/local/texlive/2019/texmf-dist/tex/latex/pgf/utilities/pgfkeys.sty
INPUT /usr/local/texlive/2019/texmf-dist/tex/generic/pgf/utilities/pgfkeys.code.tex
INPUT /usr/local/texlive/2019/texmf-dist/tex/generic/pgf/utilities/pgfkeys.code.tex
INPUT /usr/local/texlive/2019/texmf-dist/tex/latex/pgf/math/pgfmath.sty
INPUT /usr/local/texlive/2019/texmf-dist/tex/latex/pgf/math/pgfmath.sty
INPUT /usr/local/texlive/2019/texmf-dist/tex/generic/pgf/math/pgfmath.code.tex
INPUT /usr/local/texlive/2019/texmf-dist/tex/generic/pgf/math/pgfmath.code.tex
INPUT /usr/local/texlive/2019/texmf-dist/tex/generic/pgf/utilities/pgffor.code.tex
INPUT /usr/local/texlive/2019/texmf-dist/tex/generic/pgf/utilities/pgffor.code.tex
INPUT /usr/local/texlive/2019/texmf-dist/tex/generic/pgf/math/pgfmath.code.tex
INPUT /usr/local/texlive/2019/texmf-dist/tex/generic/pgf/frontendlayer/tikz/tikz.code.tex
INPUT /usr/local/texlive/2019/texmf-dist/tex/generic/pgf/frontendlayer/tikz/tikz.code.tex
INPUT /usr/local/texlive/2019/texmf-dist/tex/generic/pgf/libraries/pgflibraryplothandlers.code.tex
INPUT /usr/local/texlive/2019/texmf-dist/tex/generic/pgf/libraries/pgflibraryplothandlers.code.tex
INPUT /usr/local/texlive/2019/texmf-dist/tex/generic/pgf/modules/pgfmodulematrix.code.tex
INPUT /usr/local/texlive/2019/texmf-dist/tex/generic/pgf/frontendlayer/tikz/libraries/tikzlibrarytopaths.code.tex
INPUT /usr/local/texlive/2019/texmf-dist/tex/generic/pgf/frontendlayer/tikz/libraries/tikzlibrarytopaths.code.tex
INPUT /usr/local/texlive/2019/texmf-dist/tex/generic/pgf/frontendlayer/tikz/libraries/tikzlibraryarrows.code.tex
INPUT /usr/local/texlive/2019/texmf-dist/tex/generic/pgf/frontendlayer/tikz/libraries/tikzlibraryarrows.code.tex
INPUT /usr/local/texlive/2019/texmf-dist/tex/generic/pgf/libraries/pgflibraryarrows.code.tex
INPUT /usr/local/texlive/2019/texmf-dist/tex/generic/pgf/libraries/pgflibraryarrows.code.tex
INPUT /usr/local/texlive/2019/texmf-dist/tex/generic/pgf/frontendlayer/tikz/libraries/tikzlibraryautomata.code.tex
INPUT /usr/local/texlive/2019/texmf-dist/tex/generic/pgf/frontendlayer/tikz/libraries/tikzlibraryautomata.code.tex
INPUT /usr/local/texlive/2019/texmf-dist/tex/generic/pgf/frontendlayer/tikz/libraries/tikzlibraryshapes.multipart.code.tex
INPUT /usr/local/texlive/2019/texmf-dist/tex/generic/pgf/frontendlayer/tikz/libraries/tikzlibraryshapes.multipart.code.tex
INPUT /usr/local/texlive/2019/texmf-dist/tex/generic/pgf/libraries/shapes/pgflibraryshapes.multipart.code.tex
INPUT /usr/local/texlive/2019/texmf-dist/tex/generic/pgf/libraries/shapes/pgflibraryshapes.multipart.code.tex
INPUT /usr/local/texlive/2019/texmf-dist/tex/generic/pgf/frontendlayer/tikz/libraries/tikzlibrarypositioning.code.tex
INPUT /usr/local/texlive/2019/texmf-dist/tex/generic/pgf/frontendlayer/tikz/libraries/tikzlibrarypositioning.code.tex
INPUT master_Erik__notes.aux
INPUT master_Erik__notes.aux
OUTPUT master_Erik__notes.aux
INPUT /usr/local/texlive/2019/texmf-dist/tex/latex/txfonts/omltxmi.fd
INPUT /usr/local/texlive/2019/texmf-dist/tex/latex/txfonts/omltxmi.fd
INPUT /usr/local/texlive/2019/texmf-dist/tex/latex/txfonts/omstxsy.fd
INPUT /usr/local/texlive/2019/texmf-dist/tex/latex/txfonts/omstxsy.fd
INPUT /usr/local/texlive/2019/texmf-dist/tex/latex/txfonts/omxtxex.fd
INPUT /usr/local/texlive/2019/texmf-dist/tex/latex/txfonts/omxtxex.fd
INPUT /usr/local/texlive/2019/texmf-dist/tex/latex/txfonts/utxexa.fd
INPUT /usr/local/texlive/2019/texmf-dist/tex/latex/txfonts/utxexa.fd
INPUT /usr/local/texlive/2019/texmf-dist/tex/latex/txfonts/ot1txr.fd
INPUT /usr/local/texlive/2019/texmf-dist/tex/latex/txfonts/ot1txr.fd
INPUT /usr/local/texlive/2019/texmf-dist/fonts/tfm/public/txfonts/txr.tfm
INPUT /usr/local/texlive/2019/texmf-dist/tex/context/base/mkii/supp-pdf.mkii
INPUT /usr/local/texlive/2019/texmf-dist/tex/context/base/mkii/supp-pdf.mkii
INPUT /usr/local/texlive/2019/texmf-dist/tex/latex/oberdiek/epstopdf-base.sty
INPUT /usr/local/texlive/2019/texmf-dist/tex/latex/oberdiek/epstopdf-base.sty
INPUT /usr/local/texlive/2019/texmf-dist/tex/latex/oberdiek/grfext.sty
INPUT /usr/local/texlive/2019/texmf-dist/tex/latex/oberdiek/grfext.sty
INPUT /usr/local/texlive/2019/texmf-dist/tex/latex/latexconfig/epstopdf-sys.cfg
INPUT /usr/local/texlive/2019/texmf-dist/tex/latex/latexconfig/epstopdf-sys.cfg
INPUT /usr/local/texlive/2019/texmf-dist/tex/latex/hyperref/nameref.sty
INPUT /usr/local/texlive/2019/texmf-dist/tex/latex/hyperref/nameref.sty
INPUT /usr/local/texlive/2019/texmf-dist/tex/generic/oberdiek/gettitlestring.sty
INPUT /usr/local/texlive/2019/texmf-dist/tex/generic/oberdiek/gettitlestring.sty
INPUT master_Erik__notes.out
INPUT master_Erik__notes.out
INPUT master_Erik__notes.out
INPUT master_Erik__notes.out
OUTPUT master_Erik__notes.pdf
INPUT ./master_Erik__notes.out
INPUT ./master_Erik__notes.out
OUTPUT master_Erik__notes.out
INPUT /usr/local/texlive/2019/texmf-dist/fonts/tfm/public/txfonts/txr.tfm
INPUT /usr/local/texlive/2019/texmf-dist/fonts/tfm/public/txfonts/txb.tfm
INPUT /usr/local/texlive/2019/texmf-dist/fonts/tfm/public/txfonts/txr.tfm
INPUT /usr/local/texlive/2019/texmf-dist/fonts/tfm/public/txfonts/txr.tfm
INPUT /usr/local/texlive/2019/texmf-dist/fonts/tfm/public/txfonts/txr.tfm
INPUT /usr/local/texlive/2019/texmf-dist/fonts/tfm/public/txfonts/txmi.tfm
INPUT /usr/local/texlive/2019/texmf-dist/fonts/tfm/public/txfonts/txmi.tfm
INPUT /usr/local/texlive/2019/texmf-dist/fonts/tfm/public/txfonts/txmi.tfm
INPUT /usr/local/texlive/2019/texmf-dist/fonts/tfm/public/txfonts/txsy.tfm
INPUT /usr/local/texlive/2019/texmf-dist/fonts/tfm/public/txfonts/txsy.tfm
INPUT /usr/local/texlive/2019/texmf-dist/fonts/tfm/public/txfonts/txsy.tfm
INPUT /usr/local/texlive/2019/texmf-dist/fonts/tfm/public/txfonts/txex.tfm
INPUT /usr/local/texlive/2019/texmf-dist/fonts/tfm/public/txfonts/txex.tfm
INPUT /usr/local/texlive/2019/texmf-dist/fonts/tfm/public/txfonts/txex.tfm
INPUT /usr/local/texlive/2019/texmf-dist/tex/latex/txfonts/utxsya.fd
INPUT /usr/local/texlive/2019/texmf-dist/tex/latex/txfonts/utxsya.fd
INPUT /usr/local/texlive/2019/texmf-dist/fonts/tfm/public/txfonts/txsya.tfm
INPUT /usr/local/texlive/2019/texmf-dist/fonts/tfm/public/txfonts/txsya.tfm
INPUT /usr/local/texlive/2019/texmf-dist/fonts/tfm/public/txfonts/txsya.tfm
INPUT /usr/local/texlive/2019/texmf-dist/tex/latex/txfonts/utxsyb.fd
INPUT /usr/local/texlive/2019/texmf-dist/tex/latex/txfonts/utxsyb.fd
INPUT /usr/local/texlive/2019/texmf-dist/fonts/tfm/public/txfonts/txsyb.tfm
INPUT /usr/local/texlive/2019/texmf-dist/fonts/tfm/public/txfonts/txsyb.tfm
INPUT /usr/local/texlive/2019/texmf-dist/fonts/tfm/public/txfonts/txsyb.tfm
INPUT /usr/local/texlive/2019/texmf-dist/fonts/tfm/public/txfonts/txi.tfm
INPUT /usr/local/texlive/2019/texmf-dist/fonts/tfm/public/txfonts/txi.tfm
INPUT /usr/local/texlive/2019/texmf-dist/fonts/tfm/public/txfonts/txi.tfm
INPUT /usr/local/texlive/2019/texmf-dist/tex/latex/txfonts/utxmia.fd
INPUT /usr/local/texlive/2019/texmf-dist/tex/latex/txfonts/utxmia.fd
INPUT /usr/local/texlive/2019/texmf-dist/fonts/tfm/public/txfonts/txmia.tfm
INPUT /usr/local/texlive/2019/texmf-dist/fonts/tfm/public/txfonts/txmia.tfm
INPUT /usr/local/texlive/2019/texmf-dist/fonts/tfm/public/txfonts/txmia.tfm
INPUT /usr/local/texlive/2019/texmf-dist/tex/latex/txfonts/utxsyc.fd
INPUT /usr/local/texlive/2019/texmf-dist/tex/latex/txfonts/utxsyc.fd
INPUT /usr/local/texlive/2019/texmf-dist/fonts/tfm/public/txfonts/txsyc.tfm
INPUT /usr/local/texlive/2019/texmf-dist/fonts/tfm/public/txfonts/txsyc.tfm
INPUT /usr/local/texlive/2019/texmf-dist/fonts/tfm/public/txfonts/txsyc.tfm
INPUT /usr/local/texlive/2019/texmf-dist/fonts/tfm/public/txfonts/txexa.tfm
INPUT /usr/local/texlive/2019/texmf-dist/fonts/tfm/public/txfonts/txexa.tfm
INPUT /usr/local/texlive/2019/texmf-dist/fonts/tfm/public/txfonts/txexa.tfm
INPUT /usr/local/texlive/2019/texmf-dist/tex/latex/wasysym/uwasy.fd
INPUT /usr/local/texlive/2019/texmf-dist/tex/latex/wasysym/uwasy.fd
INPUT /usr/local/texlive/2019/texmf-dist/fonts/tfm/public/wasy/wasy10.tfm
INPUT /usr/local/texlive/2019/texmf-dist/fonts/tfm/public/wasy/wasy10.tfm
INPUT /usr/local/texlive/2019/texmf-dist/fonts/tfm/public/wasy/wasy7.tfm
INPUT /usr/local/texlive/2019/texmf-dist/tex/latex/jknapltx/ursfs.fd
INPUT /usr/local/texlive/2019/texmf-dist/tex/latex/jknapltx/ursfs.fd
INPUT /usr/local/texlive/2019/texmf-dist/fonts/tfm/public/rsfs/rsfs10.tfm
INPUT /usr/local/texlive/2019/texmf-dist/fonts/tfm/public/rsfs/rsfs10.tfm
INPUT /usr/local/texlive/2019/texmf-dist/fonts/tfm/public/rsfs/rsfs7.tfm
INPUT /usr/local/texlive/2019/texmf-dist/fonts/vf/public/txfonts/txb.vf
INPUT /usr/local/texlive/2019/texmf-dist/fonts/tfm/public/txfonts/rtxptmb.tfm
INPUT /usr/local/texlive/2019/texmf-dist/fonts/tfm/public/txfonts/rtxb.tfm
INPUT /usr/local/texlive/2019/texmf-var/fonts/map/pdftex/updmap/pdftex.map
INPUT /usr/local/texlive/2019/texmf-dist/fonts/vf/public/txfonts/txr.vf
INPUT /usr/local/texlive/2019/texmf-dist/fonts/tfm/public/txfonts/rtxptmr.tfm
INPUT /usr/local/texlive/2019/texmf-dist/fonts/tfm/public/txfonts/rtxr.tfm
INPUT /usr/local/texlive/2019/texmf-dist/fonts/vf/public/txfonts/txr.vf
INPUT /usr/local/texlive/2019/texmf-dist/fonts/tfm/public/txfonts/rtxptmr.tfm
INPUT /usr/local/texlive/2019/texmf-dist/fonts/tfm/public/txfonts/rtxr.tfm
INPUT /usr/local/texlive/2019/texmf-dist/fonts/tfm/public/txfonts/txr.tfm
INPUT /usr/local/texlive/2019/texmf-dist/fonts/tfm/public/txfonts/txb.tfm
INPUT /usr/local/texlive/2019/texmf-dist/tex/latex/txfonts/omstxr.fd
INPUT /usr/local/texlive/2019/texmf-dist/tex/latex/txfonts/omstxr.fd
INPUT /usr/local/texlive/2019/texmf-dist/fonts/tfm/public/txfonts/txsy.tfm
INPUT /usr/local/texlive/2019/texmf-dist/fonts/tfm/public/txfonts/txr.tfm
INPUT /usr/local/texlive/2019/texmf-dist/fonts/tfm/public/txfonts/txr.tfm
INPUT /usr/local/texlive/2019/texmf-dist/fonts/tfm/public/txfonts/txmi.tfm
INPUT /usr/local/texlive/2019/texmf-dist/fonts/tfm/public/txfonts/txmi.tfm
INPUT /usr/local/texlive/2019/texmf-dist/fonts/tfm/public/txfonts/txmi.tfm
INPUT /usr/local/texlive/2019/texmf-dist/fonts/tfm/public/txfonts/txsy.tfm
INPUT /usr/local/texlive/2019/texmf-dist/fonts/tfm/public/txfonts/txsy.tfm
INPUT /usr/local/texlive/2019/texmf-dist/fonts/tfm/public/txfonts/txex.tfm
INPUT /usr/local/texlive/2019/texmf-dist/fonts/tfm/public/txfonts/txex.tfm
INPUT /usr/local/texlive/2019/texmf-dist/fonts/tfm/public/txfonts/txex.tfm
INPUT /usr/local/texlive/2019/texmf-dist/fonts/tfm/public/txfonts/txsya.tfm
INPUT /usr/local/texlive/2019/texmf-dist/fonts/tfm/public/txfonts/txsya.tfm
INPUT /usr/local/texlive/2019/texmf-dist/fonts/tfm/public/txfonts/txsya.tfm
INPUT /usr/local/texlive/2019/texmf-dist/fonts/tfm/public/txfonts/txsyb.tfm
INPUT /usr/local/texlive/2019/texmf-dist/fonts/tfm/public/txfonts/txsyb.tfm
INPUT /usr/local/texlive/2019/texmf-dist/fonts/tfm/public/txfonts/txsyb.tfm
INPUT /usr/local/texlive/2019/texmf-dist/fonts/tfm/public/txfonts/txi.tfm
INPUT /usr/local/texlive/2019/texmf-dist/fonts/tfm/public/txfonts/txi.tfm
INPUT /usr/local/texlive/2019/texmf-dist/fonts/tfm/public/txfonts/txi.tfm
INPUT /usr/local/texlive/2019/texmf-dist/fonts/tfm/public/txfonts/txmia.tfm
INPUT /usr/local/texlive/2019/texmf-dist/fonts/tfm/public/txfonts/txmia.tfm
INPUT /usr/local/texlive/2019/texmf-dist/fonts/tfm/public/txfonts/txmia.tfm
INPUT /usr/local/texlive/2019/texmf-dist/fonts/tfm/public/txfonts/txsyc.tfm
INPUT /usr/local/texlive/2019/texmf-dist/fonts/tfm/public/txfonts/txsyc.tfm
INPUT /usr/local/texlive/2019/texmf-dist/fonts/tfm/public/txfonts/txsyc.tfm
INPUT /usr/local/texlive/2019/texmf-dist/fonts/tfm/public/txfonts/txexa.tfm
INPUT /usr/local/texlive/2019/texmf-dist/fonts/tfm/public/txfonts/txexa.tfm
INPUT /usr/local/texlive/2019/texmf-dist/fonts/tfm/public/txfonts/txexa.tfm
INPUT /usr/local/texlive/2019/texmf-dist/fonts/tfm/public/wasy/wasy10.tfm
INPUT /usr/local/texlive/2019/texmf-dist/fonts/tfm/public/wasy/wasy8.tfm
INPUT /usr/local/texlive/2019/texmf-dist/fonts/tfm/public/wasy/wasy6.tfm
INPUT /usr/local/texlive/2019/texmf-dist/fonts/tfm/public/rsfs/rsfs10.tfm
INPUT /usr/local/texlive/2019/texmf-dist/fonts/tfm/public/rsfs/rsfs10.tfm
INPUT /usr/local/texlive/2019/texmf-dist/fonts/tfm/public/rsfs/rsfs5.tfm
INPUT /usr/local/texlive/2019/texmf-dist/fonts/vf/public/txfonts/txb.vf
INPUT /usr/local/texlive/2019/texmf-dist/fonts/tfm/public/txfonts/rtxptmb.tfm
INPUT /usr/local/texlive/2019/texmf-dist/fonts/tfm/public/txfonts/rtxb.tfm
INPUT /usr/local/texlive/2019/texmf-dist/fonts/vf/public/txfonts/txmi.vf
INPUT /usr/local/texlive/2019/texmf-dist/fonts/tfm/public/txfonts/rtxmi.tfm
INPUT /usr/local/texlive/2019/texmf-dist/fonts/tfm/public/txfonts/rtxptmri.tfm
INPUT /usr/local/texlive/2019/texmf-dist/fonts/vf/public/txfonts/txmi.vf
INPUT /usr/local/texlive/2019/texmf-dist/fonts/tfm/public/txfonts/rtxmi.tfm
INPUT /usr/local/texlive/2019/texmf-dist/fonts/tfm/public/txfonts/rtxptmri.tfm
INPUT /usr/local/texlive/2019/texmf-dist/fonts/vf/public/txfonts/txr.vf
INPUT /usr/local/texlive/2019/texmf-dist/fonts/tfm/public/txfonts/rtxptmr.tfm
INPUT /usr/local/texlive/2019/texmf-dist/fonts/tfm/public/txfonts/rtxr.tfm
INPUT /usr/local/texlive/2019/texmf-dist/fonts/tfm/public/txfonts/txb.tfm
INPUT /usr/local/texlive/2019/texmf-dist/fonts/tfm/public/txfonts/txb.tfm
INPUT /usr/local/texlive/2019/texmf-dist/fonts/tfm/public/txfonts/txb.tfm
INPUT /usr/local/texlive/2019/texmf-dist/fonts/tfm/public/txfonts/txbmi.tfm
INPUT /usr/local/texlive/2019/texmf-dist/fonts/tfm/public/txfonts/txbmi.tfm
INPUT /usr/local/texlive/2019/texmf-dist/fonts/tfm/public/txfonts/txbmi.tfm
INPUT /usr/local/texlive/2019/texmf-dist/fonts/tfm/public/txfonts/txbsy.tfm
INPUT /usr/local/texlive/2019/texmf-dist/fonts/tfm/public/txfonts/txbsy.tfm
INPUT /usr/local/texlive/2019/texmf-dist/fonts/tfm/public/txfonts/txbsy.tfm
INPUT /usr/local/texlive/2019/texmf-dist/fonts/tfm/public/txfonts/txbex.tfm
INPUT /usr/local/texlive/2019/texmf-dist/fonts/tfm/public/txfonts/txbex.tfm
INPUT /usr/local/texlive/2019/texmf-dist/fonts/tfm/public/txfonts/txbex.tfm
INPUT /usr/local/texlive/2019/texmf-dist/fonts/tfm/public/txfonts/txbsya.tfm
INPUT /usr/local/texlive/2019/texmf-dist/fonts/tfm/public/txfonts/txbsya.tfm
INPUT /usr/local/texlive/2019/texmf-dist/fonts/tfm/public/txfonts/txbsya.tfm
INPUT /usr/local/texlive/2019/texmf-dist/fonts/tfm/public/txfonts/txbsyb.tfm
INPUT /usr/local/texlive/2019/texmf-dist/fonts/tfm/public/txfonts/txbsyb.tfm
INPUT /usr/local/texlive/2019/texmf-dist/fonts/tfm/public/txfonts/txbsyb.tfm
INPUT /usr/local/texlive/2019/texmf-dist/fonts/tfm/public/txfonts/txbi.tfm
INPUT /usr/local/texlive/2019/texmf-dist/fonts/tfm/public/txfonts/txbi.tfm
INPUT /usr/local/texlive/2019/texmf-dist/fonts/tfm/public/txfonts/txbi.tfm
INPUT /usr/local/texlive/2019/texmf-dist/fonts/tfm/public/txfonts/txbmia.tfm
INPUT /usr/local/texlive/2019/texmf-dist/fonts/tfm/public/txfonts/txbmia.tfm
INPUT /usr/local/texlive/2019/texmf-dist/fonts/tfm/public/txfonts/txbmia.tfm
INPUT /usr/local/texlive/2019/texmf-dist/fonts/tfm/public/txfonts/txbsyc.tfm
INPUT /usr/local/texlive/2019/texmf-dist/fonts/tfm/public/txfonts/txbsyc.tfm
INPUT /usr/local/texlive/2019/texmf-dist/fonts/tfm/public/txfonts/txbsyc.tfm
INPUT /usr/local/texlive/2019/texmf-dist/fonts/tfm/public/txfonts/txbexa.tfm
INPUT /usr/local/texlive/2019/texmf-dist/fonts/tfm/public/txfonts/txbexa.tfm
INPUT /usr/local/texlive/2019/texmf-dist/fonts/tfm/public/txfonts/txbexa.tfm
INPUT /usr/local/texlive/2019/texmf-dist/fonts/tfm/public/wasy/wasyb10.tfm
INPUT /usr/local/texlive/2019/texmf-dist/fonts/vf/public/txfonts/txbmi.vf
INPUT /usr/local/texlive/2019/texmf-dist/fonts/tfm/public/txfonts/rtxbmi.tfm
INPUT /usr/local/texlive/2019/texmf-dist/fonts/tfm/public/txfonts/rtxptmbi.tfm
INPUT /usr/local/texlive/2019/texmf-dist/fonts/vf/public/txfonts/txbmi.vf
INPUT /usr/local/texlive/2019/texmf-dist/fonts/tfm/public/txfonts/rtxbmi.tfm
INPUT /usr/local/texlive/2019/texmf-dist/fonts/tfm/public/txfonts/rtxptmbi.tfm
INPUT master_Erik__notes.aux
INPUT ./master_Erik__notes.out
INPUT ./master_Erik__notes.out
INPUT /usr/local/texlive/2019/texmf-dist/fonts/enc/dvips/base/8r.enc
INPUT /usr/local/texlive/2019/texmf-dist/fonts/type1/public/txfonts/rtxmi.pfb
INPUT /usr/local/texlive/2019/texmf-dist/fonts/type1/public/txfonts/rtxr.pfb
INPUT /usr/local/texlive/2019/texmf-dist/fonts/type1/public/txfonts/txex.pfb
INPUT /usr/local/texlive/2019/texmf-dist/fonts/type1/public/txfonts/txsy.pfb
INPUT /usr/local/texlive/2019/texmf-dist/fonts/type1/public/txfonts/txsyb.pfb
INPUT /usr/local/texlive/2019/texmf-dist/fonts/type1/public/txfonts/txsyc.pfb
INPUT /usr/local/texlive/2019/texmf-dist/fonts/type1/urw/times/utmb8a.pfb
INPUT /usr/local/texlive/2019/texmf-dist/fonts/type1/urw/times/utmbi8a.pfb
INPUT /usr/local/texlive/2019/texmf-dist/fonts/type1/urw/times/utmr8a.pfb
INPUT /usr/local/texlive/2019/texmf-dist/fonts/type1/urw/times/utmri8a.pfb
