\relax 
\providecommand\hyper@newdestlabel[2]{}
\providecommand\HyperFirstAtBeginDocument{\AtBeginDocument}
\HyperFirstAtBeginDocument{\ifx\hyper@anchor\@undefined
\global\let\oldcontentsline\contentsline
\gdef\contentsline#1#2#3#4{\oldcontentsline{#1}{#2}{#3}}
\global\let\oldnewlabel\newlabel
\gdef\newlabel#1#2{\newlabelxx{#1}#2}
\gdef\newlabelxx#1#2#3#4#5#6{\oldnewlabel{#1}{{#2}{#3}}}
\AtEndDocument{\ifx\hyper@anchor\@undefined
\let\contentsline\oldcontentsline
\let\newlabel\oldnewlabel
\fi}
\fi}
\global\let\hyper@last\relax 
\gdef\HyperFirstAtBeginDocument#1{#1}
\providecommand\HyField@AuxAddToFields[1]{}
\providecommand\HyField@AuxAddToCoFields[2]{}
\@writefile{toc}{\contentsline {section}{\numberline {1}Introduction}{2}{section.1}\protected@file@percent }
\@writefile{toc}{\contentsline {section}{Appendices}{4}{section*.1}\protected@file@percent }
\@writefile{toc}{\contentsline {section}{\numberline {A}Zustandsumme}{4}{appendix.A}\protected@file@percent }
\newlabel{appx:zustandsSumme}{{A}{4}{Zustandsumme}{appendix.A}{}}
\@writefile{toc}{\contentsline {subsection}{\numberline {A.1}Formeln}{4}{subsection.A.1}\protected@file@percent }
\@writefile{toc}{\contentsline {subsection}{\numberline {A.2}Herleitung Boltzmanfaktor (Wikipedia)}{4}{subsection.A.2}\protected@file@percent }
\bibstyle{plain}
\bibdata{FeynmanPathInt_notes}
\@writefile{toc}{\contentsline {subsection}{\numberline {A.3}Entropie in Abhaengigkeit der Zustandssumme}{7}{subsection.A.3}\protected@file@percent }
